…
#> Number of cells: 38 
#> Grid reference system: eea 
#> Coordinate range:
#> xmin xmax ymin ymax 
#>   NA   NA   NA   NA 
#> 
#> Total number of observations: 70 
#> Number of species represented: 1 
#> Number of families represented: Data not present 
#> 
#> Kingdoms represented: Data not present 
#> 
#> First 10 rows of data (use n = to show more):
#> 
#> # A tibble: 114 × 9
#>     year cellCode   obs scientificName minCoordinateUncertaint…¹ taxonKey xcoord
#>    <dbl> <chr>    <dbl>          <dbl> <chr>                     <chr>     <dbl>
#>  1     1 10           1         0.552  species1                  s1           NA
#>  2     1 12           3         0.0242 species1                  s1           NA
#>  3     1 13           2         0.0217 species1                  s1           NA
#>  4     1 14           2         0.233  species1                  s1           NA
#>  5     1 15           1         0.584  species1                  s1           NA
#>  6     1 16           2         0.0241 species1                  s1           NA
#>  7     1 19           1         0.0844 species1                  s1           NA
#>  8     1 20           2         0.149  species1                  s1           NA
#>  9     1 23           1         0.353  species1                  s1           NA
#> 10     1 26           1         0.208  species1                  s1           NA
#> # ℹ 104 more rows
#> # ℹ abbreviated name: ¹​minCoordinateUncertaintyInMeters
#> # ℹ 2 more variables: ycoord <dbl>, resolution <chr>
…
